0,9975; -0,02075978790045796
0,9950000000000001; -0,0373798978230695
0,9925000000000002; -0,05362928617670715
0,9900000000000002; -0,06839178843968652
0,9875000000000003; -0,08371407175252443
0,9850000000000003; -0,09982601313261186
0,9825000000000004; -0,11437292655750575
0,9800000000000004; -0,131042225103978
0,9775000000000005; -0,14975207893835463
0,9750000000000005; -0,16880580448826055
0,9725000000000006; -0,19104055002674714
0,9700000000000006; -0,21549933964027312
0,9675000000000007; -0,24183383122062696
0,9650000000000007; -0,26788455285032753
0,9625000000000008; -0,2921001114610007
0,9600000000000009; -0,31647302778723785
0,9575000000000009; -0,34399394701543407
0,955000000000001; -0,37373771715711634
0,952500000000001; -0,40142199868859296
0,9500000000000011; -0,4302230963495406
0,9475000000000011; -0,4623421592268053
0,9450000000000012; -0,4971200827518518
0,9425000000000012; -0,5348639695507942
0,9400000000000013; -0,5761976949855001
0,9375000000000013; -0,6193668361714215
0,9350000000000014; -0,6639542307472215
0,9325000000000014; -0,7084395951831017
0,9300000000000015; -0,7557062495555726
0,9275000000000015; -0,8079214559767623
0,9250000000000016; -0,8632308007852183
0,9225000000000017; -0,9177873639823265
0,9200000000000017; -0,9764225473973951
0,9175000000000018; -1,0415921151838434
0,9150000000000018; -1,1096248433288116
0,9125000000000019; -1,1779107959297679
0,9100000000000019; -1,2493401467683412
0,907500000000002; -1,3283792148006723
0,905000000000002; -1,4120780774738866
