1,0025; 0,01161508449192572
1,005; 0,021360807737089038
1,0074999999999998; 0,029943721300600412
1,0099999999999998; 0,037891135723288616
1,0124999999999997; 0,0469303236175288
1,0149999999999997; 0,05524102670400277
1,0174999999999996; 0,06273865363674691
1,0199999999999996; 0,0699292688684755
1,0224999999999995; 0,07747967237881592
1,0249999999999995; 0,08450656057623773
1,0274999999999994; 0,09128270758766088
1,0299999999999994; 0,09792463355301173
1,0324999999999993; 0,10454647445371545
1,0349999999999993; 0,11088679439312565
1,0374999999999992; 0,11723309818617289
1,0399999999999991; 0,12351464571280735
1,042499999999999; 0,1297016979549056
1,044999999999999; 0,13618071680434474
1,047499999999999; 0,1423386527474807
1,049999999999999; 0,14886322438458566
1,0524999999999989; 0,15573671716019277
1,0549999999999988; 0,16284271764850233
1,0574999999999988; 0,17034875215918888
1,0599999999999987; 0,17829097466083094
1,0624999999999987; 0,1865268634502772
1,0649999999999986; 0,19458671862947535
1,0674999999999986; 0,20382776912973427
1,0699999999999985; 0,21429956009700235
1,0724999999999985; 0,22505918752072968
1,0749999999999984; 0,23714100050629855
1,0774999999999983; 0,25001050631955174
1,0799999999999983; 0,2635151342429472
1,0824999999999982; 0,2782365554735714
1,0849999999999982; 0,2935736463256438
1,0874999999999981; 0,3115085652712395
1,089999999999998; 0,3300873892471252
1,092499999999998; 0,3492855943195456
1,094999999999998; 0,3683697194554342
1,097499999999998; 0,39228151547832496
