\relax 
\providecommand\hyper@newdestlabel[2]{}
\providecommand\zref@newlabel[2]{}
\providecommand\HyperFirstAtBeginDocument{\AtBeginDocument}
\HyperFirstAtBeginDocument{\ifx\hyper@anchor\@undefined
\global\let\oldcontentsline\contentsline
\gdef\contentsline#1#2#3#4{\oldcontentsline{#1}{#2}{#3}}
\global\let\oldnewlabel\newlabel
\gdef\newlabel#1#2{\newlabelxx{#1}#2}
\gdef\newlabelxx#1#2#3#4#5#6{\oldnewlabel{#1}{{#2}{#3}}}
\AtEndDocument{\ifx\hyper@anchor\@undefined
\let\contentsline\oldcontentsline
\let\newlabel\oldnewlabel
\fi}
\fi}
\global\let\hyper@last\relax 
\gdef\HyperFirstAtBeginDocument#1{#1}
\providecommand\HyField@AuxAddToFields[1]{}
\providecommand\HyField@AuxAddToCoFields[2]{}
\providecommand\pbs@newkey[2]{}
\providecommand\pbs@seq@push@cx[2]{}
\providecommand\pbs@at@end@dvi@check{}
\pbs@at@end@dvi@check
\providecommand\@anim@newkey[2]{}
\pbs@newkey{pbs@last@page}{1}
\@writefile{nav}{\headcommand {\slideentry {0}{0}{1}{1/1}{}{0}}}
\@writefile{nav}{\headcommand {\beamer@framepages {1}{1}}}
\pbs@newkey{pbs@last@page}{2}
\@writefile{nav}{\headcommand {\slideentry {0}{0}{2}{2/2}{}{0}}}
\@writefile{nav}{\headcommand {\beamer@framepages {2}{2}}}
\pbs@newkey{pbs@last@page}{3}
\@writefile{toc}{\beamer@sectionintoc {1}{Introduction}{3}{0}{1}}
\@writefile{nav}{\headcommand {\beamer@sectionpages {1}{2}}}
\@writefile{nav}{\headcommand {\beamer@subsectionpages {1}{2}}}
\@writefile{nav}{\headcommand {\sectionentry {1}{Introduction}{3}{Introduction}{0}}}
\@writefile{nav}{\headcommand {\slideentry {1}{0}{1}{3/3}{}{0}}}
\@writefile{nav}{\headcommand {\beamer@framepages {3}{3}}}
\pbs@newkey{pbs@last@page}{4}
\@writefile{nav}{\headcommand {\slideentry {1}{0}{2}{4/4}{}{0}}}
\@writefile{nav}{\headcommand {\beamer@framepages {4}{4}}}
\pbs@newkey{pbs@last@page}{5}
\@writefile{nav}{\headcommand {\slideentry {1}{0}{3}{5/5}{}{0}}}
\@writefile{nav}{\headcommand {\beamer@framepages {5}{5}}}
\pbs@newkey{pbs@last@page}{6}
\@writefile{nav}{\headcommand {\slideentry {1}{0}{4}{6/6}{}{0}}}
\@writefile{nav}{\headcommand {\beamer@framepages {6}{6}}}
\pbs@newkey{pbs@last@page}{7}
\@writefile{toc}{\beamer@sectionintoc {2}{FE model}{7}{0}{2}}
\@writefile{nav}{\headcommand {\beamer@sectionpages {3}{6}}}
\@writefile{nav}{\headcommand {\beamer@subsectionpages {3}{6}}}
\@writefile{nav}{\headcommand {\sectionentry {2}{FE model}{7}{FE model}{0}}}
\@writefile{nav}{\headcommand {\slideentry {2}{0}{1}{7/7}{}{0}}}
\@writefile{nav}{\headcommand {\beamer@framepages {7}{7}}}
\pbs@newkey{pbs@last@page}{8}
\@writefile{nav}{\headcommand {\slideentry {2}{0}{2}{8/8}{}{0}}}
\@writefile{nav}{\headcommand {\beamer@framepages {8}{8}}}
\pbs@newkey{pbs@last@page}{9}
\@writefile{nav}{\headcommand {\slideentry {2}{0}{3}{9/9}{}{0}}}
\@writefile{nav}{\headcommand {\beamer@framepages {9}{9}}}
\pbs@newkey{pbs@last@page}{10}
\@writefile{toc}{\beamer@sectionintoc {3}{Results \& Discussion}{10}{0}{3}}
\@writefile{nav}{\headcommand {\beamer@sectionpages {7}{9}}}
\@writefile{nav}{\headcommand {\beamer@subsectionpages {7}{9}}}
\@writefile{nav}{\headcommand {\sectionentry {3}{Results \& Discussion}{10}{Results \& Discussion}{0}}}
\@writefile{nav}{\headcommand {\slideentry {3}{0}{1}{10/10}{}{0}}}
\@writefile{nav}{\headcommand {\beamer@framepages {10}{10}}}
\pbs@newkey{pbs@last@page}{11}
\@writefile{nav}{\headcommand {\slideentry {3}{0}{2}{11/11}{}{0}}}
\@writefile{nav}{\headcommand {\beamer@framepages {11}{11}}}
\pbs@newkey{pbs@last@page}{12}
\@writefile{nav}{\headcommand {\slideentry {3}{0}{3}{12/12}{}{0}}}
\@writefile{nav}{\headcommand {\beamer@framepages {12}{12}}}
\pbs@newkey{pbs@last@page}{13}
\zref@newlabel{anim@abspage0}{\abspage{13}}
\@writefile{nav}{\headcommand {\slideentry {3}{0}{4}{13/13}{}{0}}}
\@writefile{nav}{\headcommand {\beamer@framepages {13}{13}}}
\pbs@newkey{pbs@last@page}{14}
\@writefile{toc}{\beamer@sectionintoc {4}{Conclusions}{14}{0}{4}}
\@writefile{nav}{\headcommand {\beamer@sectionpages {10}{13}}}
\@writefile{nav}{\headcommand {\beamer@subsectionpages {10}{13}}}
\@writefile{nav}{\headcommand {\sectionentry {4}{Conclusions}{14}{Conclusions}{0}}}
\@writefile{nav}{\headcommand {\slideentry {4}{0}{1}{14/14}{}{0}}}
\@writefile{nav}{\headcommand {\beamer@framepages {14}{14}}}
\citation{p1}
\pbs@newkey{pbs@last@page}{15}
\@writefile{nav}{\headcommand {\slideentry {4}{0}{2}{15/15}{}{0}}}
\@writefile{nav}{\headcommand {\beamer@framepages {15}{15}}}
\bibcite{p1}{\hyperlink {beamerbibp1}{Smith, 2012}}
\pbs@newkey{pbs@last@page}{16}
\@writefile{nav}{\headcommand {\slideentry {4}{0}{3}{16/16}{}{0}}}
\@writefile{nav}{\headcommand {\beamer@framepages {16}{16}}}
\pbs@newkey{pbs@last@page}{17}
\@writefile{nav}{\headcommand {\slideentry {4}{0}{4}{17/17}{}{0}}}
\@writefile{nav}{\headcommand {\beamer@framepages {17}{17}}}
\@writefile{nav}{\headcommand {\beamer@partpages {1}{17}}}
\@writefile{nav}{\headcommand {\beamer@subsectionpages {14}{17}}}
\@writefile{nav}{\headcommand {\beamer@sectionpages {14}{17}}}
\@writefile{nav}{\headcommand {\beamer@documentpages {17}}}
\@writefile{nav}{\headcommand {\gdef \inserttotalframenumber {17}}}
