\beamer@sectionintoc {1}{Introduction}{3}{0}{1}
\beamer@sectionintoc {2}{FE model}{7}{0}{2}
\beamer@sectionintoc {3}{Results \& Discussion}{10}{0}{3}
\beamer@sectionintoc {4}{Conclusions}{14}{0}{4}
